{"_id":"djulycilxfegzmmf3oud2ctt3e_34","update_ts":1616550415,"source_release_ident":"djulycilxfegzmmf3oud2ctt3e","source_work_ident":"5r6wyyk2szfbhatxdhijqrjife","source_year":"2018","ref_index":34,"ref_key":"CIT0034","target_release_ident":"tcvffh4gfre5nadizpf4f2pcgm","target_work_ident":"hnl4df4vtfcrjbwdv652bhz7ky","match_provenance":"join","match_status":"exact","match_reason":"doi"}
{"_id":"qfln4z2rjbh25bjkdtgqfgbr5y_7","update_ts":1616550415,"source_release_ident":"qfln4z2rjbh25bjkdtgqfgbr5y","source_work_ident":"6tvnvlstyjbwlncoyo3y7eobfu","source_year":"2015","ref_index":7,"ref_key":"b6","target_release_ident":"fr2xflnbmfff3gx2vrxywllmp4","target_work_ident":"uyzsagyjd5gytoltooagyqy66u","match_provenance":"join","match_status":"exact","match_reason":"doi"}
{"_id":"cql2z4z2mzdtne26lbdclaf2mi_18","update_ts":1616550415,"source_release_ident":"cql2z4z2mzdtne26lbdclaf2mi","source_work_ident":"e3r7czvqhzbjzny2h2y5r4j76y","source_year":"2009","ref_index":18,"ref_key":"10.1111/j.1538-7836.2009.03685.x-BIB18|cit18","target_release_ident":"eedkg7qjufcqnamezd67vlcbru","target_work_ident":"jyi6malei5bmfhtepalmgu2rzq","match_provenance":"join","match_status":"exact","match_reason":"doi"}
